{
    "macros": [
        "NDEBUG=1"
    ],
    "target_overrides": {
        "*": {
            "platform.thread-stats-enabled": false,
            "target.c_lib": "small",
            "target.printf_lib": "minimal-printf",
            "platform.minimal-printf-enable-floating-point": false,
            "platform.stdio-minimal-console-only": false,
            "platform.stdio-flush-at-exit": false
        }
    }
}
